\relax 
\providecommand\hyper@newdestlabel[2]{}
\providecommand\HyperFirstAtBeginDocument{\AtBeginDocument}
\HyperFirstAtBeginDocument{\ifx\hyper@anchor\@undefined
\global\let\oldcontentsline\contentsline
\gdef\contentsline#1#2#3#4{\oldcontentsline{#1}{#2}{#3}}
\global\let\oldnewlabel\newlabel
\gdef\newlabel#1#2{\newlabelxx{#1}#2}
\gdef\newlabelxx#1#2#3#4#5#6{\oldnewlabel{#1}{{#2}{#3}}}
\AtEndDocument{\ifx\hyper@anchor\@undefined
\let\contentsline\oldcontentsline
\let\newlabel\oldnewlabel
\fi}
\fi}
\global\let\hyper@last\relax 
\gdef\HyperFirstAtBeginDocument#1{#1}
\providecommand\HyField@AuxAddToFields[1]{}
\providecommand\HyField@AuxAddToCoFields[2]{}
\citation{kilian2009speculative}
\citation{kilian2009speculative}
\citation{kilian2009speculative}
\select@language{english}
\@writefile{toc}{\select@language{english}}
\@writefile{lof}{\select@language{english}}
\@writefile{lot}{\select@language{english}}
\@writefile{toc}{\contentsline {section}{\numberline {1}Data}{1}{section.1}}
\citation{kim1999statespace}
\@writefile{toc}{\contentsline {section}{\numberline {2}Model}{2}{section.2}}
\newlabel{eq:observ}{{1}{2}{Model}{equation.2.1}{}}
\newlabel{eq:observ-matrix-form}{{2}{2}{Model}{equation.2.2}{}}
\citation{kim1999statespace}
\newlabel{eq:transition}{{3}{3}{Model}{equation.2.3}{}}
\newlabel{eq:transit-matrix-form}{{4}{3}{Model}{equation.2.4}{}}
\@writefile{toc}{\contentsline {section}{\numberline {3}Structural Identification and Results}{4}{section.3}}
\citation{kilian2009speculative}
\citation{kilian2009speculative}
\@writefile{toc}{\contentsline {section}{\numberline {4}Paragraphs for the Paper}{5}{section.4}}
\bibstyle{plainnat}
\bibdata{coffee}
\bibcite{kilian2009speculative}{{1}{2009}{{Kilian}}{{}}}
\bibcite{kim1999statespace}{{2}{1999}{{Kim and Nelson}}{{}}}
\@writefile{lof}{\contentsline {figure}{\numberline {1}{\ignorespaces Original Data}}{7}{figure.1}}
\newlabel{fig:raw_data_plots}{{1}{7}{Original Data}{figure.1}{}}
\@writefile{lof}{\contentsline {figure}{\numberline {2}{\ignorespaces Structural Shocks}}{8}{figure.2}}
\newlabel{fig:structural_shocks}{{2}{8}{Structural Shocks}{figure.2}{}}
